<?xml version="1.0" encoding="utf-8"?>
<!-- Generator: Adobe Illustrator 19.0.0, SVG Export Plug-In . SVG Version: 6.00 Build 0)  -->
<svg version="1.1" id="Capa_1" xmlns="http://www.w3.org/2000/svg" xmlns:xlink="http://www.w3.org/1999/xlink" x="0px" y="0px"
	 viewBox="0 0 264 328" style="enable-background:new 0 0 264 328;" xml:space="preserve">
<style type="text/css">
	.st0{fill:#f2f2f2;stroke:#f2f2f2;stroke-miterlimit:10;}
</style>
<g>
	<path class="st0" d="M197.9,309.1c-17.8-59.7-35.6-119.5-53.6-179.2c-2-6.7-3.3-11.8,2.9-17.7c6.1-5.9,5.8-14.4,1.8-21.9
		c-3.7-7-9.6-11.3-21.6-11.7c-0.7,0-5.2,0.1-5.9,5.1c-0.7,5,3.4,6.4,7.7,6.8c6.7,0.5,10.5,4.1,10.2,10.5c-0.3,5.3-3.8,8.6-9.3,8.9
		c-7,0.4-10.2-3.6-11-9.8c-0.6-4-1-8.4-6.6-7.6c-5.8,0.8-6.2,5.7-5.4,10c0.7,3.7,1.8,8.3,4.4,10.6c6,5.2,4.7,10.3,2.7,16.7
		C96,189.8,78.1,249.9,60.1,310c-1.2,3.9-4.4,8.3,0.7,11.6c4.9,3.2,8.2-1.1,11.5-3.4c16.5-11.7,33.2-23.2,49.2-35.5
		c6-4.6,9.7-3.9,15.3,0.3c15.8,11.9,32,23.3,48.2,34.8c3.7,2.6,7.5,7.4,12.6,4C202.8,318.4,199.2,313.4,197.9,309.1z M148.7,190.3
		c5.2,3.2,3.2,9.6,4.8,14.8c-4.6-3.4-12-3.4-12-9.9C141.5,193.4,147.6,189.6,148.7,190.3z M113.7,171.1c4.8-15.5,9.5-31,15.2-49.7
		c5.7,18.7,10.4,34.2,15.3,49.7c2.7,8.7-5.6,9.8-9.7,13.8c-3.7,3.7-7.4,3.8-11.1,0C119.4,180.8,111,179.7,113.7,171.1z M77.5,299
		c0,0.1,0,0.2,0,0.4h0c-0.1,0-0.3,0-0.4,0c-0.4,0.3-0.8,0.7-1.2,1c0-0.3,0-0.7-0.1-1c0.4,0,0.8,0,1.2,0c0.1-0.1,0.2-0.2,0.3-0.2
		C77.3,299.1,77.4,299.1,77.5,299c0.2-16.8,9.2-31.5,12.4-49.7c10.2,7.2,19.2,13.7,29.5,21C104.6,280.4,91,289.7,77.5,299z
		 M128.8,260.7c-8.9,0.3-18.2-10.9-27.2-17.3c-9.3-6.6-9.3-12.6-0.1-20.1c3.3-2.7,7-5.1,10.5-7.7c3.1-2.3,7.4-4.1,6.2-8.9
		c-1.4-5.5-6.1-3.6-9.9-3.6c-1.1,0-2.2-0.3-3.6-0.5c1.4-4.2,2.8-8.2,4.6-13.6c16.9,12,33.3,23.2,49.1,35.2c7.9,6,7.1,12.9-1.2,18.7
		C147.8,249.4,138.4,260.4,128.8,260.7z M182.1,300.4c-0.4-0.3-0.8-0.7-1.2-1c-0.1,0-0.3,0-0.4,0c0-0.1,0-0.2,0-0.4
		c-13.6-9.3-27.2-18.6-41.9-28.7c10.1-7.2,18.9-13.6,29.1-20.9c4.1,17.5,12,32.6,12.8,49.5c0.1,0,0.1,0.1,0.2,0.1
		c0.1,0.1,0.2,0.1,0.3,0.2c0.4,0,0.8,0,1.2,0C182.1,299.7,182.1,300,182.1,300.4z"/>
	<path class="st0" d="M218.9,176.4c-3,3.5-6.1,11.7-12.7,6.1c-6-5.1,0.3-9.6,3.8-13.6c17.6-20,26.6-43,26.4-69.4
		c0-26-9-48.7-26.5-68.2c-1.3-1.5-2.7-2.8-4-4.3c-2.4-2.9-4.1-6.2-0.8-9.3c3.9-3.8,7.2-1.3,10.2,1.7c14.1,14.3,23.9,31,28.8,50.3
		C254.2,109.3,246.1,145.1,218.9,176.4z"/>
	<path class="st0" d="M51.4,183c-5,4.2-7.9-1.2-10.6-4.1C19.5,156.4,9.4,129.7,9.4,99.2c0.1-29.7,10.4-55.6,30.2-77.9
		c3.1-3.5,6.6-8.5,11.8-4.4c5.3,4.2,1,8.2-2.3,11.7C11.1,69.1,11.9,132.4,49.4,171C52.8,174.5,56.4,178.8,51.4,183z"/>
	<path class="st0" d="M211.1,100.2c-0.5,9-1.5,17.9-4.8,26.3c-1.4,3.6-3,7.9-8.4,6.1c-4.4-1.5-4.2-5.4-3-8.9
		c8.9-26.8,3.8-50.6-15.7-71.4c-2.7-2.9-3.3-6.5,0.1-9.3c3.8-3.1,6.7-0.2,9.2,2.3C203.8,60.5,210.2,79.2,211.1,100.2z"/>
	<path class="st0" d="M78.6,156.1c-4.1,3.9-7.1,0.4-10.1-2.2c-19.4-17.7-27.8-57.8-17-81.3c1.3-2.8,2.4-5.9,7.8-5.6
		c4.5,0.6,4.8,4.7,3.5,8.5c-9.2,26.7-4,50.4,15.1,71.3C80.5,149.6,81.6,153.1,78.6,156.1z"/>
	<path class="st0" d="M166.2,131.3c-2.9,3-5.9,6.1-10,2.7c-4-3.3-2.1-6.8,0.8-10.1c5.9-6.7,9.5-14.3,9.2-23.8
		c0.4-8.5-2.6-16.3-8.5-23.1c-3-3.4-6.4-7.4-1.9-11c5-4,8.6,0.3,11.7,4C182,87.4,181.4,115.5,166.2,131.3z"/>
	<path class="st0" d="M101.6,134.1c-3,2.4-5.7,1.2-8.5-1c-17.3-13.3-17.9-51.3-0.9-65.6c1.4-1.2,3.2-2.1,3.9-2.6
		c3.3-0.4,5.2,0.2,6.5,1.9c2.1,2.6,1.3,5.2-0.6,7.4c-14.7,17.3-14.4,34.4,0.1,51.6C104.3,128.5,104.7,131.6,101.6,134.1z"/>
	<path class="st0" d="M194,145.9c-1.7,5.6-5.3,10.3-11.3,12.2c-3.8-1-6.7-3.3-5.7-6.6c1.6-5.7,4.7-11,11.6-11.6
		C192.3,139.5,195,142.6,194,145.9z"/>
	<path class="st0" d="M80,46.8c-0.3,6.6-5.3,9.9-9.8,13c-4.2-0.6-7.5-2.6-6.8-5.9c1.3-5.8,4.9-10.8,11.4-12.1
		C77.9,41.1,80.1,43.8,80,46.8z"/>
	<path class="st0" d="M77.3,299.1c0.1,0,0.1-0.1,0.2-0.1c0,0.1,0,0.2,0,0.4h0C77.4,299.4,77.3,299.1,77.3,299.1z"/>
	<path class="st0" d="M180.6,299.1l-0.2,0.2c0-0.1,0-0.2,0-0.4C180.5,299.1,180.6,299.1,180.6,299.1z"/>
	<path class="st0" d="M75.8,299.3c0.4,0,0.8,0,1.2,0c-0.4,0.3-0.8,0.7-1.2,1C75.8,300,75.8,299.7,75.8,299.3z"/>
	<path class="st0" d="M77.4,299.4c-0.1,0-0.3,0-0.4,0c0.1-0.1,0.2-0.2,0.3-0.2C77.3,299.1,77.4,299.4,77.4,299.4z"/>
	<path class="st0" d="M180.6,299.1c0.1,0.1,0.2,0.1,0.3,0.2c-0.1,0-0.3,0-0.4,0L180.6,299.1z"/>
	<path class="st0" d="M182.2,299.3c0,0.3,0,0.7-0.1,1c-0.4-0.3-0.8-0.7-1.2-1C181.3,299.4,181.7,299.3,182.2,299.3z"/>
</g>
</svg>
