<?xml version="1.0" encoding="utf-8"?>
<!-- Generator: Adobe Illustrator 19.0.0, SVG Export Plug-In . SVG Version: 6.00 Build 0)  -->
<svg version="1.1" id="Capa_1" xmlns="http://www.w3.org/2000/svg" xmlns:xlink="http://www.w3.org/1999/xlink" x="0px" y="0px"
	 viewBox="466 806.5 93.2 103.8" style="enable-background:new 466 806.5 93.2 103.8;" xml:space="preserve">
<style type="text/css">
	.st0{fill:#24ABC5;}
	.st1{fill:#FCFEFF;stroke:#FCFEFF;stroke-miterlimit:10;}
</style>
<path class="st0" d="M554.2,910.2H471c-2.8,0-5-2.2-5-5v-93.8c0-2.8,2.2-5,5-5h83.2c2.8,0,5,2.2,5,5v93.8
	C559.2,908,557,910.2,554.2,910.2z"/>
<g>
	<path class="st1" d="M548.4,851c-0.4-1.1-1.3-1.7-2.6-1.7h-25.2l12.5-34c0.5-1.5,0.1-2.6-1.1-3.4c-1.1-0.7-2.6-0.6-3.5,0.3
		l-51.1,50.4c-0.9,0.9-1.1,2-0.6,3.2c0.5,1.2,1.3,1.8,2.6,1.8h25.2l-12.5,34c-0.5,1.5-0.1,2.6,1.1,3.4c0.8,0.5,2.4,0.8,3.6-0.4
		l51-50.4C548.7,853.2,548.9,852.2,548.4,851z M501.9,891.4l9.4-25.8c0.4-1,0.3-1.9-0.3-2.7c-0.6-0.8-1.3-1.1-2.3-1.1h-22.3
		l36.9-36.5l-9.5,25.8c-0.3,0.9-0.2,1.7,0.4,2.5c0.6,0.9,1.3,1.3,2.3,1.3h22.3L501.9,891.4z"/>
</g>
</svg>
